simulation/RTL Simulation.txt
Chronologic VCS simulator copyright 1991-2013
Contains Synopsys proprietary information.
Compiler version H-2013.06; Runtime version H-2013.06;  Mar 15 21:11 2017
Input:    1, PASS, Hardware: 0, Function: 0, i :    5
Input:    2, PASS, Hardware: 1, Function: 1, i :    5
Input:    3, PASS, Hardware: 1, Function: 1, i :    5
Input:    4, PASS, Hardware: 0, Function: 0, i :    5
Input:    5, PASS, Hardware: 1, Function: 1, i :    5
Input:    6, PASS, Hardware: 0, Function: 0, i :    5
Input:    7, PASS, Hardware: 1, Function: 1, i :    5
Input:    8, PASS, Hardware: 0, Function: 0, i :    5
Input:    9, PASS, Hardware: 0, Function: 0, i :    5
Input:   10, PASS, Hardware: 0, Function: 0, i :    5
Input:   11, PASS, Hardware: 1, Function: 1, i :    5
Input:   12, PASS, Hardware: 0, Function: 0, i :    5
Input:   13, PASS, Hardware: 1, Function: 1, i :    5
Input:   14, PASS, Hardware: 0, Function: 0, i :    5
Input:   15, PASS, Hardware: 0, Function: 0, i :    5
Input:   16, PASS, Hardware: 0, Function: 0, i :    5
Input:   17, PASS, Hardware: 1, Function: 1, i :    5
Input:   18, PASS, Hardware: 0, Function: 0, i :    5
Input:   19, PASS, Hardware: 1, Function: 1, i :    5
Input:   20, PASS, Hardware: 0, Function: 0, i :    5
Input:   21, PASS, Hardware: 0, Function: 0, i :    5
Input:   22, PASS, Hardware: 0, Function: 0, i :    5
Input:   23, PASS, Hardware: 1, Function: 1, i :    5
Input:   24, PASS, Hardware: 0, Function: 0, i :    5
Input:   25, PASS, Hardware: 0, Function: 0, i :   11
Input:   26, PASS, Hardware: 0, Function: 0, i :    5
Input:   27, PASS, Hardware: 0, Function: 0, i :    5
Input:   28, PASS, Hardware: 0, Function: 0, i :    5
Input:   29, PASS, Hardware: 1, Function: 1, i :   11
Input:   30, PASS, Hardware: 0, Function: 0, i :    5
Input:   31, PASS, Hardware: 1, Function: 1, i :   11
Input:   32, PASS, Hardware: 0, Function: 0, i :    5
Input:   33, PASS, Hardware: 0, Function: 0, i :    5
Input:   34, PASS, Hardware: 0, Function: 0, i :    5
Input:   35, PASS, Hardware: 0, Function: 0, i :   11
Input:   36, PASS, Hardware: 0, Function: 0, i :    5
Input:   37, PASS, Hardware: 1, Function: 1, i :   11
Input:   38, PASS, Hardware: 0, Function: 0, i :    5
Input:   39, PASS, Hardware: 0, Function: 0, i :    5
Input:   40, PASS, Hardware: 0, Function: 0, i :    5
Input:   41, PASS, Hardware: 1, Function: 1, i :   11
Input:   42, PASS, Hardware: 0, Function: 0, i :    5
Input:   43, PASS, Hardware: 1, Function: 1, i :   11
Input:   44, PASS, Hardware: 0, Function: 0, i :    5
Input:   45, PASS, Hardware: 0, Function: 0, i :    5
Input:   46, PASS, Hardware: 0, Function: 0, i :    5
Input:   47, PASS, Hardware: 1, Function: 1, i :   11
Input:   48, PASS, Hardware: 0, Function: 0, i :    5
Input:   49, PASS, Hardware: 0, Function: 0, i :   11
Input:   50, PASS, Hardware: 0, Function: 0, i :    5
Input:   51, PASS, Hardware: 0, Function: 0, i :    5
Input:   52, PASS, Hardware: 0, Function: 0, i :    5
Input:   53, PASS, Hardware: 1, Function: 1, i :   11
Input:   54, PASS, Hardware: 0, Function: 0, i :    5
Input:   55, PASS, Hardware: 0, Function: 0, i :   11
Input:   56, PASS, Hardware: 0, Function: 0, i :    5
Input:   57, PASS, Hardware: 0, Function: 0, i :    5
Input:   58, PASS, Hardware: 0, Function: 0, i :    5
Input:   59, PASS, Hardware: 1, Function: 1, i :   11
Input:   60, PASS, Hardware: 0, Function: 0, i :    5
Input:   61, PASS, Hardware: 1, Function: 1, i :   11
Input:   62, PASS, Hardware: 0, Function: 0, i :    5
Input:   63, PASS, Hardware: 0, Function: 0, i :    5
Input:   64, PASS, Hardware: 0, Function: 0, i :    5
Input:   65, PASS, Hardware: 0, Function: 0, i :   11
Input:   66, PASS, Hardware: 0, Function: 0, i :    5
Input:   67, PASS, Hardware: 1, Function: 1, i :   11
Input:   68, PASS, Hardware: 0, Function: 0, i :    5
Input:   69, PASS, Hardware: 0, Function: 0, i :    5
Input:   70, PASS, Hardware: 0, Function: 0, i :    5
Input:   71, PASS, Hardware: 1, Function: 1, i :   11
Input:   72, PASS, Hardware: 0, Function: 0, i :    5
Input:   73, PASS, Hardware: 1, Function: 1, i :   11
Input:   74, PASS, Hardware: 0, Function: 0, i :    5
Input:   75, PASS, Hardware: 0, Function: 0, i :    5
Input:   76, PASS, Hardware: 0, Function: 0, i :    5
Input:   77, PASS, Hardware: 0, Function: 0, i :   11
Input:   78, PASS, Hardware: 0, Function: 0, i :    5
Input:   79, PASS, Hardware: 1, Function: 1, i :   11
Input:   80, PASS, Hardware: 0, Function: 0, i :    5
Input:   81, PASS, Hardware: 0, Function: 0, i :    5
Input:   82, PASS, Hardware: 0, Function: 0, i :    5
Input:   83, PASS, Hardware: 1, Function: 1, i :   11
Input:   84, PASS, Hardware: 0, Function: 0, i :    5
Input:   85, PASS, Hardware: 0, Function: 0, i :   11
Input:   86, PASS, Hardware: 0, Function: 0, i :    5
Input:   87, PASS, Hardware: 0, Function: 0, i :    5
Input:   88, PASS, Hardware: 0, Function: 0, i :    5
Input:   89, PASS, Hardware: 1, Function: 1, i :   11
Input:   90, PASS, Hardware: 0, Function: 0, i :    5
Input:   91, PASS, Hardware: 0, Function: 0, i :   11
Input:   92, PASS, Hardware: 0, Function: 0, i :    5
Input:   93, PASS, Hardware: 0, Function: 0, i :    5
Input:   94, PASS, Hardware: 0, Function: 0, i :    5
Input:   95, PASS, Hardware: 0, Function: 0, i :   11
Input:   96, PASS, Hardware: 0, Function: 0, i :    5
Input:   97, PASS, Hardware: 1, Function: 1, i :   11
Input:   98, PASS, Hardware: 0, Function: 0, i :    5
Input:   99, PASS, Hardware: 0, Function: 0, i :    5
Input:  100, PASS, Hardware: 0, Function: 0, i :    5
Input:  101, PASS, Hardware: 1, Function: 1, i :   11
Input:  102, PASS, Hardware: 0, Function: 0, i :    5
Input:  103, PASS, Hardware: 1, Function: 1, i :   11
Input:  104, PASS, Hardware: 0, Function: 0, i :    5
Input:  105, PASS, Hardware: 0, Function: 0, i :    5
Input:  106, PASS, Hardware: 0, Function: 0, i :    5
Input:  107, PASS, Hardware: 1, Function: 1, i :   11
Input:  108, PASS, Hardware: 0, Function: 0, i :    5
Input:  109, PASS, Hardware: 1, Function: 1, i :   11
Input:  110, PASS, Hardware: 0, Function: 0, i :    5
Input:  111, PASS, Hardware: 0, Function: 0, i :    5
Input:  112, PASS, Hardware: 0, Function: 0, i :    5
Input:  113, PASS, Hardware: 1, Function: 1, i :   11
Input:  114, PASS, Hardware: 0, Function: 0, i :    5
Input:  115, PASS, Hardware: 0, Function: 0, i :   11
Input:  116, PASS, Hardware: 0, Function: 0, i :    5
Input:  117, PASS, Hardware: 0, Function: 0, i :    5
Input:  118, PASS, Hardware: 0, Function: 0, i :    5
Input:  119, PASS, Hardware: 0, Function: 0, i :   11
Input:  120, PASS, Hardware: 0, Function: 0, i :    5
Input:  121, PASS, Hardware: 0, Function: 0, i :   17
Input:  122, PASS, Hardware: 0, Function: 0, i :    5
Input:  123, PASS, Hardware: 0, Function: 0, i :    5
Input:  124, PASS, Hardware: 0, Function: 0, i :    5
Input:  125, PASS, Hardware: 0, Function: 0, i :   11
Input:  126, PASS, Hardware: 0, Function: 0, i :    5
Input:  127, PASS, Hardware: 1, Function: 1, i :   17
Input:  128, PASS, Hardware: 0, Function: 0, i :    5
Input:  129, PASS, Hardware: 0, Function: 0, i :    5
Input:  130, PASS, Hardware: 0, Function: 0, i :    5
Input:  131, PASS, Hardware: 1, Function: 1, i :   17
Input:  132, PASS, Hardware: 0, Function: 0, i :    5
Input:  133, PASS, Hardware: 0, Function: 0, i :   11
Input:  134, PASS, Hardware: 0, Function: 0, i :    5
Input:  135, PASS, Hardware: 0, Function: 0, i :    5
Input:  136, PASS, Hardware: 0, Function: 0, i :    5
Input:  137, PASS, Hardware: 1, Function: 1, i :   17
Input:  138, PASS, Hardware: 0, Function: 0, i :    5
Input:  139, PASS, Hardware: 1, Function: 1, i :   17
Input:  140, PASS, Hardware: 0, Function: 0, i :    5
Input:  141, PASS, Hardware: 0, Function: 0, i :    5
Input:  142, PASS, Hardware: 0, Function: 0, i :    5
Input:  143, PASS, Hardware: 0, Function: 0, i :   17
Input:  144, PASS, Hardware: 0, Function: 0, i :    5
Input:  145, PASS, Hardware: 0, Function: 0, i :   11
Input:  146, PASS, Hardware: 0, Function: 0, i :    5
Input:  147, PASS, Hardware: 0, Function: 0, i :    5
Input:  148, PASS, Hardware: 0, Function: 0, i :    5
Input:  149, PASS, Hardware: 1, Function: 1, i :   17
Input:  150, PASS, Hardware: 0, Function: 0, i :    5
Input:  151, PASS, Hardware: 1, Function: 1, i :   17
Input:  152, PASS, Hardware: 0, Function: 0, i :    5
Input:  153, PASS, Hardware: 0, Function: 0, i :    5
Input:  154, PASS, Hardware: 0, Function: 0, i :    5
Input:  155, PASS, Hardware: 0, Function: 0, i :   11
Input:  156, PASS, Hardware: 0, Function: 0, i :    5
Input:  157, PASS, Hardware: 1, Function: 1, i :   17
Input:  158, PASS, Hardware: 0, Function: 0, i :    5
Input:  159, PASS, Hardware: 0, Function: 0, i :    5
Input:  160, PASS, Hardware: 0, Function: 0, i :    5
Input:  161, PASS, Hardware: 0, Function: 0, i :   11
Input:  162, PASS, Hardware: 0, Function: 0, i :    5
Input:  163, PASS, Hardware: 1, Function: 1, i :   17
Input:  164, PASS, Hardware: 0, Function: 0, i :    5
Input:  165, PASS, Hardware: 0, Function: 0, i :    5
Input:  166, PASS, Hardware: 0, Function: 0, i :    5
Input:  167, PASS, Hardware: 1, Function: 1, i :   17
Input:  168, PASS, Hardware: 0, Function: 0, i :    5
Input:  169, PASS, Hardware: 0, Function: 0, i :   17
Input:  170, PASS, Hardware: 0, Function: 0, i :    5
Input:  171, PASS, Hardware: 0, Function: 0, i :    5
Input:  172, PASS, Hardware: 0, Function: 0, i :    5
Input:  173, PASS, Hardware: 1, Function: 1, i :   17
Input:  174, PASS, Hardware: 0, Function: 0, i :    5
Input:  175, PASS, Hardware: 0, Function: 0, i :   11
Input:  176, PASS, Hardware: 0, Function: 0, i :    5
Input:  177, PASS, Hardware: 0, Function: 0, i :    5
Input:  178, PASS, Hardware: 0, Function: 0, i :    5
Input:  179, PASS, Hardware: 1, Function: 1, i :   17
Input:  180, PASS, Hardware: 0, Function: 0, i :    5
Input:  181, PASS, Hardware: 1, Function: 1, i :   17
Input:  182, PASS, Hardware: 0, Function: 0, i :    5
Input:  183, PASS, Hardware: 0, Function: 0, i :    5
Input:  184, PASS, Hardware: 0, Function: 0, i :    5
Input:  185, PASS, Hardware: 0, Function: 0, i :   11
Input:  186, PASS, Hardware: 0, Function: 0, i :    5
Input:  187, PASS, Hardware: 0, Function: 0, i :   17
Input:  188, PASS, Hardware: 0, Function: 0, i :    5
Input:  189, PASS, Hardware: 0, Function: 0, i :    5
Input:  190, PASS, Hardware: 0, Function: 0, i :    5
Input:  191, PASS, Hardware: 1, Function: 1, i :   17
Input:  192, PASS, Hardware: 0, Function: 0, i :    5
Input:  193, PASS, Hardware: 1, Function: 1, i :   17
Input:  194, PASS, Hardware: 0, Function: 0, i :    5
Input:  195, PASS, Hardware: 0, Function: 0, i :    5
Input:  196, PASS, Hardware: 0, Function: 0, i :    5
Input:  197, PASS, Hardware: 1, Function: 1, i :   17
Input:  198, PASS, Hardware: 0, Function: 0, i :    5
Input:  199, PASS, Hardware: 1, Function: 1, i :   17
Input:  200, PASS, Hardware: 0, Function: 0, i :    5
Input:  201, PASS, Hardware: 0, Function: 0, i :    5
Input:  202, PASS, Hardware: 0, Function: 0, i :    5
Input:  203, PASS, Hardware: 0, Function: 0, i :   11
Input:  204, PASS, Hardware: 0, Function: 0, i :    5
Input:  205, PASS, Hardware: 0, Function: 0, i :   11
Input:  206, PASS, Hardware: 0, Function: 0, i :    5
Input:  207, PASS, Hardware: 0, Function: 0, i :    5
Input:  208, PASS, Hardware: 0, Function: 0, i :    5
Input:  209, PASS, Hardware: 0, Function: 0, i :   17
Input:  210, PASS, Hardware: 0, Function: 0, i :    5
Input:  211, PASS, Hardware: 1, Function: 1, i :   17
Input:  212, PASS, Hardware: 0, Function: 0, i :    5
Input:  213, PASS, Hardware: 0, Function: 0, i :    5
Input:  214, PASS, Hardware: 0, Function: 0, i :    5
Input:  215, PASS, Hardware: 0, Function: 0, i :   11
Input:  216, PASS, Hardware: 0, Function: 0, i :    5
Input:  217, PASS, Hardware: 0, Function: 0, i :   11
Input:  218, PASS, Hardware: 0, Function: 0, i :    5
Input:  219, PASS, Hardware: 0, Function: 0, i :    5
Input:  220, PASS, Hardware: 0, Function: 0, i :    5
Input:  221, PASS, Hardware: 0, Function: 0, i :   17
Input:  222, PASS, Hardware: 0, Function: 0, i :    5
Input:  223, PASS, Hardware: 1, Function: 1, i :   17
Input:  224, PASS, Hardware: 0, Function: 0, i :    5
Input:  225, PASS, Hardware: 0, Function: 0, i :    5
Input:  226, PASS, Hardware: 0, Function: 0, i :    5
Input:  227, PASS, Hardware: 1, Function: 1, i :   17
Input:  228, PASS, Hardware: 0, Function: 0, i :    5
Input:  229, PASS, Hardware: 1, Function: 1, i :   17
Input:  230, PASS, Hardware: 0, Function: 0, i :    5
Input:  231, PASS, Hardware: 0, Function: 0, i :    5
Input:  232, PASS, Hardware: 0, Function: 0, i :    5
Input:  233, PASS, Hardware: 1, Function: 1, i :   17
Input:  234, PASS, Hardware: 0, Function: 0, i :    5
Input:  235, PASS, Hardware: 0, Function: 0, i :   11
Input:  236, PASS, Hardware: 0, Function: 0, i :    5
Input:  237, PASS, Hardware: 0, Function: 0, i :    5
Input:  238, PASS, Hardware: 0, Function: 0, i :    5
Input:  239, PASS, Hardware: 1, Function: 1, i :   17
Input:  240, PASS, Hardware: 0, Function: 0, i :    5
Input:  241, PASS, Hardware: 1, Function: 1, i :   17
Input:  242, PASS, Hardware: 0, Function: 0, i :    5
Input:  243, PASS, Hardware: 0, Function: 0, i :    5
Input:  244, PASS, Hardware: 0, Function: 0, i :    5
Input:  245, PASS, Hardware: 0, Function: 0, i :   11
Input:  246, PASS, Hardware: 0, Function: 0, i :    5
Input:  247, PASS, Hardware: 0, Function: 0, i :   17
Input:  248, PASS, Hardware: 0, Function: 0, i :    5
Input:  249, PASS, Hardware: 0, Function: 0, i :    5
Input:  250, PASS, Hardware: 0, Function: 0, i :    5
Input:  251, PASS, Hardware: 1, Function: 1, i :   17
Input:  252, PASS, Hardware: 0, Function: 0, i :    5
Input:  253, PASS, Hardware: 0, Function: 0, i :   17
Input:  254, PASS, Hardware: 0, Function: 0, i :    5
Input:  255, PASS, Hardware: 0, Function: 0, i :    5
Input:  256, PASS, Hardware: 0, Function: 0, i :    5
Input:  257, PASS, Hardware: 1, Function: 1, i :   17
Input:  258, PASS, Hardware: 0, Function: 0, i :    5
Input:  259, PASS, Hardware: 0, Function: 0, i :   11
Input:  260, PASS, Hardware: 0, Function: 0, i :    5
Input:  261, PASS, Hardware: 0, Function: 0, i :    5
Input:  262, PASS, Hardware: 0, Function: 0, i :    5
Input:  263, PASS, Hardware: 1, Function: 1, i :   17
Input:  264, PASS, Hardware: 0, Function: 0, i :    5
Input:  265, PASS, Hardware: 0, Function: 0, i :   11
Input:  266, PASS, Hardware: 0, Function: 0, i :    5
Input:  267, PASS, Hardware: 0, Function: 0, i :    5
Input:  268, PASS, Hardware: 0, Function: 0, i :    5
Input:  269, PASS, Hardware: 1, Function: 1, i :   17
Input:  270, PASS, Hardware: 0, Function: 0, i :    5
Input:  271, PASS, Hardware: 1, Function: 1, i :   17
Input:  272, PASS, Hardware: 0, Function: 0, i :    5
Input:  273, PASS, Hardware: 0, Function: 0, i :    5
Input:  274, PASS, Hardware: 0, Function: 0, i :    5
Input:  275, PASS, Hardware: 0, Function: 0, i :   11
Input:  276, PASS, Hardware: 0, Function: 0, i :    5
Input:  277, PASS, Hardware: 1, Function: 1, i :   17
Input:  278, PASS, Hardware: 0, Function: 0, i :    5
Input:  279, PASS, Hardware: 0, Function: 0, i :    5
Input:  280, PASS, Hardware: 0, Function: 0, i :    5
Input:  281, PASS, Hardware: 1, Function: 1, i :   17
Input:  282, PASS, Hardware: 0, Function: 0, i :    5
Input:  283, PASS, Hardware: 1, Function: 1, i :   17
Input:  284, PASS, Hardware: 0, Function: 0, i :    5
Input:  285, PASS, Hardware: 0, Function: 0, i :    5
Input:  286, PASS, Hardware: 0, Function: 0, i :    5
Input:  287, PASS, Hardware: 0, Function: 0, i :   11
Input:  288, PASS, Hardware: 0, Function: 0, i :    5
Input:  289, PASS, Hardware: 0, Function: 0, i :   23
Input:  290, PASS, Hardware: 0, Function: 0, i :    5
Input:  291, PASS, Hardware: 0, Function: 0, i :    5
Input:  292, PASS, Hardware: 0, Function: 0, i :    5
Input:  293, PASS, Hardware: 1, Function: 1, i :   23
Input:  294, PASS, Hardware: 0, Function: 0, i :    5
Input:  295, PASS, Hardware: 0, Function: 0, i :   11
Input:  296, PASS, Hardware: 0, Function: 0, i :    5
Input:  297, PASS, Hardware: 0, Function: 0, i :    5
Input:  298, PASS, Hardware: 0, Function: 0, i :    5
Input:  299, PASS, Hardware: 0, Function: 0, i :   17
Input:  300, PASS, Hardware: 0, Function: 0, i :    5
Input:  301, PASS, Hardware: 0, Function: 0, i :   11
Input:  302, PASS, Hardware: 0, Function: 0, i :    5
Input:  303, PASS, Hardware: 0, Function: 0, i :    5
Input:  304, PASS, Hardware: 0, Function: 0, i :    5
Input:  305, PASS, Hardware: 0, Function: 0, i :   11
Input:  306, PASS, Hardware: 0, Function: 0, i :    5
Input:  307, PASS, Hardware: 1, Function: 1, i :   23
Input:  308, PASS, Hardware: 0, Function: 0, i :    5
Input:  309, PASS, Hardware: 0, Function: 0, i :    5
Input:  310, PASS, Hardware: 0, Function: 0, i :    5
Input:  311, PASS, Hardware: 1, Function: 1, i :   23
Input:  312, PASS, Hardware: 0, Function: 0, i :    5
Input:  313, PASS, Hardware: 1, Function: 1, i :   23
Input:  314, PASS, Hardware: 0, Function: 0, i :    5
Input:  315, PASS, Hardware: 0, Function: 0, i :    5
Input:  316, PASS, Hardware: 0, Function: 0, i :    5
Input:  317, PASS, Hardware: 1, Function: 1, i :   23
Input:  318, PASS, Hardware: 0, Function: 0, i :    5
Input:  319, PASS, Hardware: 0, Function: 0, i :   17
Input:  320, PASS, Hardware: 0, Function: 0, i :    5
Input:  321, PASS, Hardware: 0, Function: 0, i :    5
Input:  322, PASS, Hardware: 0, Function: 0, i :    5
Input:  323, PASS, Hardware: 0, Function: 0, i :   23
Input:  324, PASS, Hardware: 0, Function: 0, i :    5
Input:  325, PASS, Hardware: 0, Function: 0, i :   11
Input:  326, PASS, Hardware: 0, Function: 0, i :    5
Input:  327, PASS, Hardware: 0, Function: 0, i :    5
Input:  328, PASS, Hardware: 0, Function: 0, i :    5
Input:  329, PASS, Hardware: 0, Function: 0, i :   11
Input:  330, PASS, Hardware: 0, Function: 0, i :    5
Input:  331, PASS, Hardware: 1, Function: 1, i :   23
Input:  332, PASS, Hardware: 0, Function: 0, i :    5
Input:  333, PASS, Hardware: 0, Function: 0, i :    5
Input:  334, PASS, Hardware: 0, Function: 0, i :    5
Input:  335, PASS, Hardware: 0, Function: 0, i :   11
Input:  336, PASS, Hardware: 0, Function: 0, i :    5
Input:  337, PASS, Hardware: 1, Function: 1, i :   23
Input:  338, PASS, Hardware: 0, Function: 0, i :    5
Input:  339, PASS, Hardware: 0, Function: 0, i :    5
Input:  340, PASS, Hardware: 0, Function: 0, i :    5
Input:  341, PASS, Hardware: 0, Function: 0, i :   17
Input:  342, PASS, Hardware: 0, Function: 0, i :    5
Input:  343, PASS, Hardware: 0, Function: 0, i :   11
Input:  344, PASS, Hardware: 0, Function: 0, i :    5
Input:  345, PASS, Hardware: 0, Function: 0, i :    5
Input:  346, PASS, Hardware: 0, Function: 0, i :    5
Input:  347, PASS, Hardware: 1, Function: 1, i :   23
Input:  348, PASS, Hardware: 0, Function: 0, i :    5
Input:  349, PASS, Hardware: 1, Function: 1, i :   23
Input:  350, PASS, Hardware: 0, Function: 0, i :    5
Input:  351, PASS, Hardware: 0, Function: 0, i :    5
Input:  352, PASS, Hardware: 0, Function: 0, i :    5
Input:  353, PASS, Hardware: 1, Function: 1, i :   23
Input:  354, PASS, Hardware: 0, Function: 0, i :    5
Input:  355, PASS, Hardware: 0, Function: 0, i :   11
Input:  356, PASS, Hardware: 0, Function: 0, i :    5
Input:  357, PASS, Hardware: 0, Function: 0, i :    5
Input:  358, PASS, Hardware: 0, Function: 0, i :    5
Input:  359, PASS, Hardware: 1, Function: 1, i :   23
Input:  360, PASS, Hardware: 0, Function: 0, i :    5
Input:  361, PASS, Hardware: 0, Function: 0, i :   23
Input:  362, PASS, Hardware: 0, Function: 0, i :    5
Input:  363, PASS, Hardware: 0, Function: 0, i :    5
Input:  364, PASS, Hardware: 0, Function: 0, i :    5
Input:  365, PASS, Hardware: 0, Function: 0, i :   11
Input:  366, PASS, Hardware: 0, Function: 0, i :    5
Input:  367, PASS, Hardware: 1, Function: 1, i :   23
Input:  368, PASS, Hardware: 0, Function: 0, i :    5
Input:  369, PASS, Hardware: 0, Function: 0, i :    5
Input:  370, PASS, Hardware: 0, Function: 0, i :    5
Input:  371, PASS, Hardware: 0, Function: 0, i :   11
Input:  372, PASS, Hardware: 0, Function: 0, i :    5
Input:  373, PASS, Hardware: 1, Function: 1, i :   23
Input:  374, PASS, Hardware: 0, Function: 0, i :    5
Input:  375, PASS, Hardware: 0, Function: 0, i :    5
Input:  376, PASS, Hardware: 0, Function: 0, i :    5
Input:  377, PASS, Hardware: 0, Function: 0, i :   17
Input:  378, PASS, Hardware: 0, Function: 0, i :    5
Input:  379, PASS, Hardware: 1, Function: 1, i :   23
Input:  380, PASS, Hardware: 0, Function: 0, i :    5
Input:  381, PASS, Hardware: 0, Function: 0, i :    5
Input:  382, PASS, Hardware: 0, Function: 0, i :    5
Input:  383, PASS, Hardware: 1, Function: 1, i :   23
Input:  384, PASS, Hardware: 0, Function: 0, i :    5
Input:  385, PASS, Hardware: 0, Function: 0, i :   11
Input:  386, PASS, Hardware: 0, Function: 0, i :    5
Input:  387, PASS, Hardware: 0, Function: 0, i :    5
Input:  388, PASS, Hardware: 0, Function: 0, i :    5
Input:  389, PASS, Hardware: 1, Function: 1, i :   23
Input:  390, PASS, Hardware: 0, Function: 0, i :    5
Input:  391, PASS, Hardware: 0, Function: 0, i :   23
Input:  392, PASS, Hardware: 0, Function: 0, i :    5
Input:  393, PASS, Hardware: 0, Function: 0, i :    5
Input:  394, PASS, Hardware: 0, Function: 0, i :    5
Input:  395, PASS, Hardware: 0, Function: 0, i :   11
Input:  396, PASS, Hardware: 0, Function: 0, i :    5
Input:  397, PASS, Hardware: 1, Function: 1, i :   23
Input:  398, PASS, Hardware: 0, Function: 0, i :    5
Input:  399, PASS, Hardware: 0, Function: 0, i :    5
Input:  400, PASS, Hardware: 0, Function: 0, i :    5
Input:  401, PASS, Hardware: 1, Function: 1, i :   23
Input:  402, PASS, Hardware: 0, Function: 0, i :    5
Input:  403, PASS, Hardware: 0, Function: 0, i :   17
Input:  404, PASS, Hardware: 0, Function: 0, i :    5
Input:  405, PASS, Hardware: 0, Function: 0, i :    5
Input:  406, PASS, Hardware: 0, Function: 0, i :    5
Input:  407, PASS, Hardware: 0, Function: 0, i :   17
Input:  408, PASS, Hardware: 0, Function: 0, i :    5
Input:  409, PASS, Hardware: 1, Function: 1, i :   23
Input:  410, PASS, Hardware: 0, Function: 0, i :    5
Input:  411, PASS, Hardware: 0, Function: 0, i :    5
Input:  412, PASS, Hardware: 0, Function: 0, i :    5
Input:  413, PASS, Hardware: 0, Function: 0, i :   11
Input:  414, PASS, Hardware: 0, Function: 0, i :    5
Input:  415, PASS, Hardware: 0, Function: 0, i :   11
Input:  416, PASS, Hardware: 0, Function: 0, i :    5
Input:  417, PASS, Hardware: 0, Function: 0, i :    5
Input:  418, PASS, Hardware: 0, Function: 0, i :    5
Input:  419, PASS, Hardware: 1, Function: 1, i :   23
Input:  420, PASS, Hardware: 0, Function: 0, i :    5
Input:  421, PASS, Hardware: 1, Function: 1, i :   23
Input:  422, PASS, Hardware: 0, Function: 0, i :    5
Input:  423, PASS, Hardware: 0, Function: 0, i :    5
Input:  424, PASS, Hardware: 0, Function: 0, i :    5
Input:  425, PASS, Hardware: 0, Function: 0, i :   11
Input:  426, PASS, Hardware: 0, Function: 0, i :    5
Input:  427, PASS, Hardware: 0, Function: 0, i :   11
Input:  428, PASS, Hardware: 0, Function: 0, i :    5
Input:  429, PASS, Hardware: 0, Function: 0, i :    5
Input:  430, PASS, Hardware: 0, Function: 0, i :    5
Input:  431, PASS, Hardware: 1, Function: 1, i :   23
Input:  432, PASS, Hardware: 0, Function: 0, i :    5
Input:  433, PASS, Hardware: 1, Function: 1, i :   23
Input:  434, PASS, Hardware: 0, Function: 0, i :    5
Input:  435, PASS, Hardware: 0, Function: 0, i :    5
Input:  436, PASS, Hardware: 0, Function: 0, i :    5
Input:  437, PASS, Hardware: 0, Function: 0, i :   23
Input:  438, PASS, Hardware: 0, Function: 0, i :    5
Input:  439, PASS, Hardware: 1, Function: 1, i :   23
Input:  440, PASS, Hardware: 0, Function: 0, i :    5
Input:  441, PASS, Hardware: 0, Function: 0, i :    5
Input:  442, PASS, Hardware: 0, Function: 0, i :    5
Input:  443, PASS, Hardware: 1, Function: 1, i :   23
Input:  444, PASS, Hardware: 0, Function: 0, i :    5
Input:  445, PASS, Hardware: 0, Function: 0, i :   11
Input:  446, PASS, Hardware: 0, Function: 0, i :    5
Input:  447, PASS, Hardware: 0, Function: 0, i :    5
Input:  448, PASS, Hardware: 0, Function: 0, i :    5
Input:  449, PASS, Hardware: 1, Function: 1, i :   23
Input:  450, PASS, Hardware: 0, Function: 0, i :    5
Input:  451, PASS, Hardware: 0, Function: 0, i :   17
Input:  452, PASS, Hardware: 0, Function: 0, i :    5
Input:  453, PASS, Hardware: 0, Function: 0, i :    5
Input:  454, PASS, Hardware: 0, Function: 0, i :    5
Input:  455, PASS, Hardware: 0, Function: 0, i :   11
Input:  456, PASS, Hardware: 0, Function: 0, i :    5
Input:  457, PASS, Hardware: 1, Function: 1, i :   23
Input:  458, PASS, Hardware: 0, Function: 0, i :    5
Input:  459, PASS, Hardware: 0, Function: 0, i :    5
Input:  460, PASS, Hardware: 0, Function: 0, i :    5
Input:  461, PASS, Hardware: 1, Function: 1, i :   23
Input:  462, PASS, Hardware: 0, Function: 0, i :    5
Input:  463, PASS, Hardware: 1, Function: 1, i :   23
Input:  464, PASS, Hardware: 0, Function: 0, i :    5
Input:  465, PASS, Hardware: 0, Function: 0, i :    5
Input:  466, PASS, Hardware: 0, Function: 0, i :    5
Input:  467, PASS, Hardware: 1, Function: 1, i :   23
Input:  468, PASS, Hardware: 0, Function: 0, i :    5
Input:  469, PASS, Hardware: 0, Function: 0, i :   11
Input:  470, PASS, Hardware: 0, Function: 0, i :    5
Input:  471, PASS, Hardware: 0, Function: 0, i :    5
Input:  472, PASS, Hardware: 0, Function: 0, i :    5
Input:  473, PASS, Hardware: 0, Function: 0, i :   17
Input:  474, PASS, Hardware: 0, Function: 0, i :    5
Input:  475, PASS, Hardware: 0, Function: 0, i :   11
Input:  476, PASS, Hardware: 0, Function: 0, i :    5
Input:  477, PASS, Hardware: 0, Function: 0, i :    5
Input:  478, PASS, Hardware: 0, Function: 0, i :    5
Input:  479, PASS, Hardware: 1, Function: 1, i :   23
Input:  480, PASS, Hardware: 0, Function: 0, i :    5
Input:  481, PASS, Hardware: 0, Function: 0, i :   17
Input:  482, PASS, Hardware: 0, Function: 0, i :    5
Input:  483, PASS, Hardware: 0, Function: 0, i :    5
Input:  484, PASS, Hardware: 0, Function: 0, i :    5
Input:  485, PASS, Hardware: 0, Function: 0, i :   11
Input:  486, PASS, Hardware: 0, Function: 0, i :    5
Input:  487, PASS, Hardware: 1, Function: 1, i :   23
Input:  488, PASS, Hardware: 0, Function: 0, i :    5
Input:  489, PASS, Hardware: 0, Function: 0, i :    5
Input:  490, PASS, Hardware: 0, Function: 0, i :    5
Input:  491, PASS, Hardware: 1, Function: 1, i :   23
Input:  492, PASS, Hardware: 0, Function: 0, i :    5
Input:  493, PASS, Hardware: 0, Function: 0, i :   23
Input:  494, PASS, Hardware: 0, Function: 0, i :    5
Input:  495, PASS, Hardware: 0, Function: 0, i :    5
Input:  496, PASS, Hardware: 0, Function: 0, i :    5
Input:  497, PASS, Hardware: 0, Function: 0, i :   11
Input:  498, PASS, Hardware: 0, Function: 0, i :    5
Input:  499, PASS, Hardware: 1, Function: 1, i :   23
Input:  500, PASS, Hardware: 0, Function: 0, i :    5
Input:  501, PASS, Hardware: 0, Function: 0, i :    5
Input:  502, PASS, Hardware: 0, Function: 0, i :    5
Input:  503, PASS, Hardware: 1, Function: 1, i :   23
Input:  504, PASS, Hardware: 0, Function: 0, i :    5
Input:  505, PASS, Hardware: 0, Function: 0, i :   11
Input:  506, PASS, Hardware: 0, Function: 0, i :    5
Input:  507, PASS, Hardware: 0, Function: 0, i :    5
Input:  508, PASS, Hardware: 0, Function: 0, i :    5
Input:  509, PASS, Hardware: 1, Function: 1, i :   23
Input:  510, PASS, Hardware: 0, Function: 0, i :    5
Input:  511, PASS, Hardware: 0, Function: 0, i :   11
Input:  512, PASS, Hardware: 0, Function: 0, i :    5
Input:  513, PASS, Hardware: 0, Function: 0, i :    5
Input:  514, PASS, Hardware: 0, Function: 0, i :    5
